…
These data columns have missing values which we’ll address further along
in the process:

*start_station_name *start_station_id *end_station_name *end_station_id
\*end_lat, end_lng

``` r
attach(bike_data)
bike_data[is.na(start_station_name),]
```

    ## # A tibble: 875,716 × 13
    ##    ride_id          rideable_type started_at          ended_at           
    ##    <chr>            <chr>         <dttm>              <dttm>             
    ##  1 3F624CAD11ADC36B electric_bike 2023-01-24 19:15:35 2023-01-24 19:21:59
    ##  2 7F4991C08F87A20F electric_bike 2023-01-27 12:36:53 2023-01-27 13:02:30
    ##  3 F3AD17CF04B88EE9 electric_bike 2023-01-20 00:37:00 2023-01-20 00:46:09
    ##  4 CA3677FEF8FD11B6 electric_bike 2023-01-27 02:13:40 2023-01-27 02:18:22
    ##  5 6FFD201EBB80C87C electric_bike 2023-01-16 01:43:52 2023-01-16 01:52:02
    ##  6 1CBF19453B2A188A electric_bike 2023-01-03 18:00:00 2023-01-03 18:21:49
    ##  7 5E4D17D116F8992E electric_bike 2023-01-25 20:10:52 2023-01-25 20:13:17
    ##  8 48D7B0517B33E979 electric_bike 2023-01-15 16:49:26 2023-01-15 16:55:08
    ##  9 0038D9BAAB896034 electric_bike 2023-01-30 19:36:11 2023-01-30 19:48:17
    ## 10 03233477CBB0DB29 electric_bike 2023-01-11 12:27:08 2023-01-11 12:36:11
    ## # ℹ 875,706 more rows
    ## # ℹ 9 more variables: start_station_name <chr>, start_station_id <chr>,
    ## #   end_station_name <chr>, end_station_id <chr>, start_lat <dbl>,
    ## #   start_lng <dbl>, end_lat <dbl>, end_lng <dbl>, member_casual <chr>

``` r
bike_data[is.na(start_station_id),]
```

    ## # A tibble: 875,848 × 13
    ##    ride_id          rideable_type started_at          ended_at           
    ##    <chr>            <chr>         <dttm>              <dttm>             
    ##  1 3F624CAD11ADC36B electric_bike 2023-01-24 19:15:35 2023-01-24 19:21:59
    ##  2 7F4991C08F87A20F electric_bike 2023-01-27 12:36:53 2023-01-27 13:02:30
    ##  3 F3AD17CF04B88EE9 electric_bike 2023-01-20 00:37:00 2023-01-20 00:46:09
    ##  4 CA3677FEF8FD11B6 electric_bike 2023-01-27 02:13:40 2023-01-27 02:18:22
    ##  5 6FFD201EBB80C87C electric_bike 2023-01-16 01:43:52 2023-01-16 01:52:02
    ##  6 1CBF19453B2A188A electric_bike 2023-01-03 18:00:00 2023-01-03 18:21:49
    ##  7 5E4D17D116F8992E electric_bike 2023-01-25 20:10:52 2023-01-25 20:13:17
    ##  8 48D7B0517B33E979 electric_bike 2023-01-15 16:49:26 2023-01-15 16:55:08
    ##  9 0038D9BAAB896034 electric_bike 2023-01-30 19:36:11 2023-01-30 19:48:17
    ## 10 03233477CBB0DB29 electric_bike 2023-01-11 12:27:08 2023-01-11 12:36:11
    ## # ℹ 875,838 more rows
    ## # ℹ 9 more variables: start_station_name <chr>, start_station_id <chr>,
    ## #   end_station_name <chr>, end_station_id <chr>, start_lat <dbl>,
    ## #   start_lng <dbl>, end_lat <dbl>, end_lng <dbl>, member_casual <chr>

``` r
bike_data[is.na(end_station_name),]
```

    ## # A tibble: 929,202 × 13
    ##    ride_id          rideable_type started_at          ended_at           
    ##    <chr>            <chr>         <dttm>              <dttm>             
    ##  1 98563E8CECC44A5B electric_bike 2023-01-06 13:12:53 2023-01-06 13:18:54
    ##  2 3F625414353F2C07 electric_bike 2023-01-24 07:01:34 2023-01-24 07:06:32
    ##  3 0A1832AB46BA959E electric_bike 2023-01-22 13:09:13 2023-01-22 13:14:17
    ##  4 4B4C428B94A39EEC electric_bike 2023-01-16 10:26:17 2023-01-16 10:28:08
    ##  5 E001B905A293D938 electric_bike 2023-01-31 05:27:52 2023-01-31 05:33:27
    ##  6 E9764CD7AB7E133B electric_bike 2023-01-25 19:08:59 2023-01-25 19:14:26
    ##  7 C641C434FA650F1D electric_bike 2023-01-11 12:24:18 2023-01-11 12:36:15
    ##  8 5611BB00F0F6B8FB electric_bike 2023-01-15 08:57:16 2023-01-15 09:02:32
    ##  9 B4A88F389369C392 electric_bike 2023-01-15 14:43:13 2023-01-15 15:18:56
    ## 10 67C3A736ED3BC098 electric_bike 2023-01-15 20:49:27 2023-01-15 20:52:04
    ## # ℹ 929,192 more rows
    ## # ℹ 9 more variables: start_station_name <chr>, start_station_id <chr>,
    ## #   end_station_name <chr>, end_station_id <chr>, start_lat <dbl>,
    ## #   start_lng <dbl>, end_lat <dbl>, end_lng <dbl>, member_casual <chr>

``` r
bike_data[is.na(end_station_id),]
```

    ## # A tibble: 929,343 × 13
    ##    ride_id          rideable_type started_at          ended_at           
    ##    <chr>            <chr>         <dttm>              <dttm>             
    ##  1 98563E8CECC44A5B electric_bike 2023-01-06 13:12:53 2023-01-06 13:18:54
    ##  2 3F625414353F2C07 electric_bike 2023-01-24 07:01:34 2023-01-24 07:06:32
    ##  3 0A1832AB46BA959E electric_bike 2023-01-22 13:09:13 2023-01-22 13:14:17
    ##  4 4B4C428B94A39EEC electric_bike 2023-01-16 10:26:17 2023-01-16 10:28:08
    ##  5 E001B905A293D938 electric_bike 2023-01-31 05:27:52 2023-01-31 05:33:27
    ##  6 E9764CD7AB7E133B electric_bike 2023-01-25 19:08:59 2023-01-25 19:14:26
    ##  7 C641C434FA650F1D electric_bike 2023-01-11 12:24:18 2023-01-11 12:36:15
    ##  8 5611BB00F0F6B8FB electric_bike 2023-01-15 08:57:16 2023-01-15 09:02:32
    ##  9 B4A88F389369C392 electric_bike 2023-01-15 14:43:13 2023-01-15 15:18:56
    ## 10 67C3A736ED3BC098 electric_bike 2023-01-15 20:49:27 2023-01-15 20:52:04
    ## # ℹ 929,333 more rows
    ## # ℹ 9 more variables: start_station_name <chr>, start_station_id <chr>,
    ## #   end_station_name <chr>, end_station_id <chr>, start_lat <dbl>,
    ## #   start_lng <dbl>, end_lat <dbl>, end_lng <dbl>, member_casual <chr>
…
``` r
bike_data[is.na(start_lng),]
```

    ## # A tibble: 0 × 13
    ## # ℹ 13 variables: ride_id <chr>, rideable_type <chr>, started_at <dttm>,
    ## #   ended_at <dttm>, start_station_name <chr>, start_station_id <chr>,
    ## #   end_station_name <chr>, end_station_id <chr>, start_lat <dbl>,
    ## #   start_lng <dbl>, end_lat <dbl>, end_lng <dbl>, member_casual <chr>

``` r
bike_data[is.na(end_lat),]
```

    ## # A tibble: 6,990 × 13
    ##    ride_id          rideable_type started_at          ended_at           
    ##    <chr>            <chr>         <dttm>              <dttm>             
    ##  1 1FB8FE3600279846 classic_bike  2023-01-01 04:45:39 2023-01-02 05:45:28
    ##  2 08D63AE5147A8A12 docked_bike   2023-01-09 14:20:41 2023-01-15 04:19:09
    ##  3 BEEB2B851275BBEE classic_bike  2023-01-30 13:24:22 2023-01-31 14:24:09
    ##  4 758F82A4444D0DF3 classic_bike  2023-01-31 09:21:10 2023-02-01 10:21:02
    ##  5 45125F6E88AD0535 docked_bike   2023-01-07 12:52:32 2023-01-08 06:47:21
    ##  6 CFD822F52941BDFF classic_bike  2023-01-19 08:30:10 2023-01-20 09:30:04
    ##  7 F4BEA5EBCB4A75B2 classic_bike  2023-01-08 09:40:16 2023-01-09 10:40:05
    ##  8 B0EBF078DBC98ED0 docked_bike   2023-01-10 14:49:33 2023-01-11 17:54:00
    ##  9 3B05E012D9448676 classic_bike  2023-01-19 08:25:17 2023-01-20 09:25:13
    ## 10 D9873617FD530D40 classic_bike  2023-01-06 16:12:58 2023-01-07 17:12:49
    ## # ℹ 6,980 more rows
    ## # ℹ 9 more variables: start_station_name <chr>, start_station_id <chr>,
    ## #   end_station_name <chr>, end_station_id <chr>, start_lat <dbl>,
    ## #   start_lng <dbl>, end_lat <dbl>, end_lng <dbl>, member_casual <chr>

``` r
bike_data[is.na(end_lng),]
```

    ## # A tibble: 6,990 × 13
    ##    ride_id          rideable_type started_at          ended_at           
    ##    <chr>            <chr>         <dttm>              <dttm>             
    ##  1 1FB8FE3600279846 classic_bike  2023-01-01 04:45:39 2023-01-02 05:45:28
    ##  2 08D63AE5147A8A12 docked_bike   2023-01-09 14:20:41 2023-01-15 04:19:09
    ##  3 BEEB2B851275BBEE classic_bike  2023-01-30 13:24:22 2023-01-31 14:24:09
    ##  4 758F82A4444D0DF3 classic_bike  2023-01-31 09:21:10 2023-02-01 10:21:02
    ##  5 45125F6E88AD0535 docked_bike   2023-01-07 12:52:32 2023-01-08 06:47:21
    ##  6 CFD822F52941BDFF classic_bike  2023-01-19 08:30:10 2023-01-20 09:30:04
    ##  7 F4BEA5EBCB4A75B2 classic_bike  2023-01-08 09:40:16 2023-01-09 10:40:05
    ##  8 B0EBF078DBC98ED0 docked_bike   2023-01-10 14:49:33 2023-01-11 17:54:00
    ##  9 3B05E012D9448676 classic_bike  2023-01-19 08:25:17 2023-01-20 09:25:13
    ## 10 D9873617FD530D40 classic_bike  2023-01-06 16:12:58 2023-01-07 17:12:49
    ## # ℹ 6,980 more rows
    ## # ℹ 9 more variables: start_station_name <chr>, start_station_id <chr>,
    ## #   end_station_name <chr>, end_station_id <chr>, start_lat <dbl>,
    ## #   start_lng <dbl>, end_lat <dbl>, end_lng <dbl>, member_casual <chr>
…
``` r
#Where start_station_name is missing, we don’t have a start_station_id to impute the missing data. I should be able to impute from data with matching end_lat & end_lng coordinates. That would be trickier because, we may have multiple station names where the lat & lng coordinates only go out 2 decimal places. For timesake and because the amount of data is immaterial, I’m going to leave as is and move on. I could remove this data as it is immaterial. Adding the View() function will provide a table that you can then also filter on.

bike_data %>% filter(is.na(start_station_name)) %>% 
  count(start_station_name, start_station_id, start_lat, start_lng, bike_type)
```

    ## # A tibble: 159 × 6
    ##    start_station_name start_station_id start_lat start_lng bike_type         n
    ##    <chr>              <chr>                <dbl>     <dbl> <chr>         <int>
    ##  1 <NA>               <NA>                  41.6     -87.5 electric_bike     1
    ##  2 <NA>               <NA>                  41.6     -87.5 electric_bike     2
    ##  3 <NA>               <NA>                  41.6     -87.6 electric_bike    17
    ##  4 <NA>               <NA>                  41.6     -87.6 electric_bike     3
    ##  5 <NA>               <NA>                  41.6     -87.5 electric_bike    17
    ##  6 <NA>               <NA>                  41.7     -87.6 electric_bike    19
    ##  7 <NA>               <NA>                  41.7     -87.6 electric_bike     5
    ##  8 <NA>               <NA>                  41.7     -87.6 electric_bike     1
    ##  9 <NA>               <NA>                  41.7     -87.6 electric_bike     5
    ## 10 <NA>               <NA>                  41.7     -87.7 electric_bike     7
    ## # ℹ 149 more rows

``` r
#Where end_station_name is missing, we don’t have a end_station_id to impute the missing data, but I should be able to impute from data with matching end_lat & end_lng coordinates. That would be trickier because, we may have multiple station names where the lat & lng coordinates only go out 2 decimal places. For timesake and because the amount of data is immaterial, I’m going to leave as is and move on. I could remove this data as it is immaterial. Adding the View() function will provide a table that you can then also filter on.

bike_data %>% filter(is.na(end_station_name)) %>% 
  count(end_station_name, end_station_id, end_lat, end_lng, bike_type)
```

    ## # A tibble: 332 × 6
    ##    end_station_name end_station_id end_lat end_lng bike_type         n
    ##    <chr>            <chr>            <dbl>   <dbl> <chr>         <int>
    ##  1 <NA>             <NA>              41.6   -87.5 electric_bike     1
    ##  2 <NA>             <NA>              41.6   -87.6 electric_bike     1
    ##  3 <NA>             <NA>              41.6   -87.6 electric_bike     1
    ##  4 <NA>             <NA>              41.6   -87.6 electric_bike     1
    ##  5 <NA>             <NA>              41.6   -87.5 electric_bike     1
    ##  6 <NA>             <NA>              41.6   -87.6 electric_bike     1
    ##  7 <NA>             <NA>              41.6   -87.5 electric_bike     1
    ##  8 <NA>             <NA>              41.6   -87.5 electric_bike     1
    ##  9 <NA>             <NA>              41.6   -87.7 electric_bike     2
    ## 10 <NA>             <NA>              41.6   -87.7 electric_bike     1
    ## # ℹ 322 more rows
…
#### Other Analysis

``` r
#Total rides by user type and by hour of the day
bike_data2 %>% 
  group_by(user_type, hour) %>% 
  summarise(count = n()) %>%  
  arrange(user_type, hour) 
```

    ## `summarise()` has grouped output by 'user_type'. You can override using the
    ## `.groups` argument.

    ## # A tibble: 48 × 3
    ## # Groups:   user_type [2]
    ##    user_type  hour count
    ##    <chr>     <int> <int>
    ##  1 casual        0 35590
    ##  2 casual        1 23074
    ##  3 casual        2 13928
    ##  4 casual        3  7658
    ##  5 casual        4  5764
    ##  6 casual        5 11135
    ##  7 casual        6 29377
    ##  8 casual        7 51688
    ##  9 casual        8 68958
    ## 10 casual        9 68142
    ## # ℹ 38 more rows
…
